{
  "project_info": {
    "project_number": "343469538114",
    "project_id": "petkeeper-63962",
    "storage_bucket": "petkeeper-63962.appspot.com"
  },
  "client": [
    {
      "client_info": {
        "mobilesdk_app_id": "1:343469538114:android:a03f6dffa851e7f044a6db",
        "android_client_info": {
          "package_name": "com.example.petkeeper"
        }
      },
      "oauth_client": [
        {
          "client_id": "343469538114-6096aec0rg9m6fpeo86kvaguq1uv5ln1.apps.googleusercontent.com",
          "client_type": 3
        }
      ],
      "api_key": [
        {
          "current_key": "AIzaSyCvXBKvpRFDntbAyCUtBwPFGVVfWz9Qrhg"
        }
      ],
      "services": {
        "appinvite_service": {
          "other_platform_oauth_client": [
            {
              "client_id": "343469538114-6096aec0rg9m6fpeo86kvaguq1uv5ln1.apps.googleusercontent.com",
              "client_type": 3
            }
          ]
        }
      }
    }
  ],
  "configuration_version": "1"
}